<svg width="64" height="64" viewBox="0 0 64 64" fill="none" xmlns="http://www.w3.org/2000/svg">
<g clip-path="url(#clip0_700_1991)">
<path d="M8.92018 57.604L3.78418 0.00195312H60.2162L55.0762 57.596L31.9642 64L8.92018 57.604Z" fill="#E44D26"/>
<path d="M50.674 53.9279L55.068 4.71191H32V59.1059L50.674 53.9279Z" fill="#F16529"/>
<path d="M31.9762 11.7759H14.2842L16.1902 33.1399H32.0002V26.0759H22.6522L22.0062 18.8419H32.0002V11.7759H31.9762ZM32.0002 44.3999L31.9702 44.4079L24.1022 42.2839L23.6022 36.6499H16.5062L17.4962 47.7419L31.9682 51.7419L32.0002 51.7319V44.3999Z" fill="#EBEBEB"/>
<path d="M31.9757 33.1399H40.6757L39.8757 42.2999L31.9957 44.4259V51.7759L46.4797 47.7619L48.4197 26.0719H31.9997L31.9757 33.1399ZM49.5037 13.6719L49.6717 11.7759H31.9717V18.8399H49.0357L49.1757 17.2519L49.5037 13.6719Z" fill="white"/>
</g>
<defs>
<clipPath id="clip0_700_1991">
<rect width="64" height="64" fill="white"/>
</clipPath>
</defs>
</svg>
