<svg width="24" height="25" viewBox="0 0 24 25" fill="none" xmlns="http://www.w3.org/2000/svg">
<path d="M20.4696 2.30971H3.52957C3.33915 2.30707 3.15007 2.34196 2.97314 2.41239C2.7962 2.48283 2.63487 2.58743 2.49837 2.72022C2.36186 2.85301 2.25285 3.01139 2.17756 3.18632C2.10227 3.36124 2.06218 3.54929 2.05957 3.73971V20.8797C2.06218 21.0701 2.10227 21.2582 2.17756 21.4331C2.25285 21.608 2.36186 21.7664 2.49837 21.8992C2.63487 22.032 2.7962 22.1366 2.97314 22.207C3.15007 22.2775 3.33915 22.3124 3.52957 22.3097H20.4696C20.66 22.3124 20.8491 22.2775 21.026 22.207C21.2029 22.1366 21.3643 22.032 21.5008 21.8992C21.6373 21.7664 21.7463 21.608 21.8216 21.4331C21.8969 21.2582 21.937 21.0701 21.9396 20.8797V3.73971C21.937 3.54929 21.8969 3.36124 21.8216 3.18632C21.7463 3.01139 21.6373 2.85301 21.5008 2.72022C21.3643 2.58743 21.2029 2.48283 21.026 2.41239C20.8491 2.34196 20.66 2.30707 20.4696 2.30971ZM8.08957 19.0497H5.08957V10.0497H8.08957V19.0497ZM6.58957 8.78971C6.17583 8.78971 5.77904 8.62535 5.48648 8.3328C5.19393 8.04024 5.02957 7.64345 5.02957 7.22971C5.02957 6.81597 5.19393 6.41918 5.48648 6.12662C5.77904 5.83407 6.17583 5.66971 6.58957 5.66971C6.80927 5.64479 7.03175 5.66656 7.24245 5.73359C7.45314 5.80062 7.64731 5.9114 7.81223 6.05867C7.97715 6.20594 8.1091 6.38639 8.19944 6.58819C8.28979 6.79 8.33649 7.00861 8.33649 7.22971C8.33649 7.45081 8.28979 7.66942 8.19944 7.87123C8.1091 8.07303 7.97715 8.25348 7.81223 8.40075C7.64731 8.54802 7.45314 8.6588 7.24245 8.72583C7.03175 8.79286 6.80927 8.81462 6.58957 8.78971ZM18.9096 19.0497H15.9096V14.2197C15.9096 13.0097 15.4796 12.2197 14.3896 12.2197C14.0522 12.2222 13.7238 12.328 13.4484 12.5229C13.1731 12.7178 12.9641 12.9924 12.8496 13.3097C12.7713 13.5448 12.7374 13.7923 12.7496 14.0397V19.0397H9.74957C9.74957 19.0397 9.74957 10.8597 9.74957 10.0397H12.7496V11.3097C13.0221 10.8368 13.4185 10.4472 13.896 10.1829C14.3735 9.91859 14.9141 9.78956 15.4596 9.80971C17.4596 9.80971 18.9096 11.0997 18.9096 13.8697V19.0497Z" fill="white"/>
</svg>
