<svg width="72" height="64" viewBox="0 0 72 64" fill="none" xmlns="http://www.w3.org/2000/svg">
<path d="M71.68 32.0073C71.68 27.2465 65.7335 22.7347 56.6164 19.9368C58.7203 10.6203 57.7852 3.20806 53.665 0.834973C52.7153 0.278324 51.6049 0.0146484 50.3922 0.0146484V3.2813C51.0643 3.2813 51.6049 3.41314 52.0579 3.66216C54.0449 4.80476 54.9069 9.15541 54.2348 14.7512C54.0741 16.1282 53.8111 17.5784 53.4897 19.0579C50.626 18.3548 47.4993 17.8128 44.2119 17.4612C42.2395 14.7512 40.194 12.2902 38.1339 10.1369C42.897 5.69833 47.3678 3.26665 50.4068 3.26665V0C46.3889 0 41.1291 2.87114 35.8108 7.85168C30.4925 2.90044 25.2326 0.0585949 21.2147 0.0585949V3.32525C24.2391 3.32525 28.7246 5.74227 33.4877 10.1515C31.4422 12.3049 29.3967 14.7512 27.4535 17.4612C24.1515 17.8128 21.0248 18.3548 18.1611 19.0726C17.825 17.6077 17.5766 16.1868 17.4013 14.8244C16.7146 9.22865 17.562 4.878 19.5345 3.72076C19.9728 3.45708 20.5426 3.33989 21.2147 3.33989V0.0732433C19.9874 0.0732433 18.877 0.336919 17.9127 0.893568C13.8071 3.26665 12.8866 10.6642 15.0052 19.9515C5.91733 22.764 0 27.2612 0 32.0073C0 36.7681 5.94655 41.2799 15.0636 44.0778C12.9597 53.3944 13.8948 60.8066 18.015 63.1797C18.9647 63.7363 20.0751 64 21.3024 64C25.3203 64 30.5802 61.1289 35.8984 56.1483C41.2167 61.0996 46.4766 63.9414 50.4945 63.9414C51.7218 63.9414 52.8322 63.6777 53.7965 63.1211C57.9021 60.748 58.8226 53.3504 56.704 44.0632C65.7627 41.2653 71.68 36.7535 71.68 32.0073ZM52.6569 22.2367C52.1163 24.1263 51.4442 26.0746 50.6844 28.0229C50.0854 26.851 49.4572 25.6791 48.7705 24.5072C48.0984 23.3353 47.3824 22.1927 46.6665 21.0794C48.7412 21.387 50.7429 21.7679 52.6569 22.2367ZM45.9652 37.8375C44.8256 39.8151 43.6567 41.6901 42.444 43.4333C40.267 43.6237 38.0608 43.7262 35.84 43.7262C33.6338 43.7262 31.4276 43.6237 29.2652 43.4479C28.0525 41.7047 26.869 39.8444 25.7294 37.8814C24.619 35.9625 23.6109 34.0142 22.6904 32.0513C23.5963 30.0883 24.619 28.1254 25.7148 26.2065C26.8544 24.2289 28.0233 22.3539 29.236 20.6107C31.413 20.4202 33.6192 20.3177 35.84 20.3177C38.0462 20.3177 40.2524 20.4202 42.4148 20.596C43.6275 22.3392 44.811 24.1996 45.9506 26.1625C47.061 28.0815 48.0691 30.0298 48.9896 31.9927C48.0691 33.9556 47.061 35.9185 45.9652 37.8375ZM50.6844 35.9332C51.4734 37.8961 52.1455 39.859 52.7007 41.7633C50.7867 42.2321 48.7705 42.6276 46.6811 42.9352C47.397 41.8073 48.113 40.65 48.7851 39.4635C49.4572 38.2916 50.0854 37.1051 50.6844 35.9332ZM35.8692 51.5633C34.5104 50.157 33.1516 48.5896 31.8075 46.8757C33.1224 46.9343 34.4666 46.9783 35.8254 46.9783C37.1988 46.9783 38.5576 46.949 39.8872 46.8757C38.5722 48.5896 37.2134 50.157 35.8692 51.5633ZM24.9989 42.9352C22.9242 42.6276 20.9225 42.2467 19.0085 41.778C19.5491 39.8883 20.2212 37.94 20.9809 35.9918C21.58 37.1637 22.2082 38.3355 22.8949 39.5074C23.5816 40.6793 24.2829 41.8219 24.9989 42.9352ZM35.7962 12.4514C37.155 13.8576 38.5138 15.425 39.8579 17.1389C38.543 17.0803 37.1988 17.0364 35.84 17.0364C34.4666 17.0364 33.1078 17.0657 31.7782 17.1389C33.0932 15.425 34.452 13.8576 35.7962 12.4514ZM24.9843 21.0794C24.2683 22.2074 23.5524 23.3646 22.8803 24.5512C22.2082 25.723 21.58 26.8949 20.9809 28.0668C20.192 26.1039 19.5199 24.141 18.9647 22.2367C20.8787 21.7826 22.8949 21.387 24.9843 21.0794ZM11.7616 39.4195C6.58942 37.2076 3.24357 34.3072 3.24357 32.0073C3.24357 29.7075 6.58942 26.7924 11.7616 24.5951C13.0181 24.0531 14.3915 23.5697 15.8088 23.1156C16.6416 25.9867 17.7374 28.975 19.0962 32.0366C17.752 35.0835 16.6708 38.0572 15.8526 40.9137C14.4061 40.4596 13.0327 39.9615 11.7616 39.4195ZM19.6221 60.3525C17.6351 59.2099 16.7731 54.8592 17.4452 49.2634C17.6059 47.8865 17.8689 46.4362 18.1903 44.9567C21.054 45.6599 24.1807 46.2019 27.4681 46.5534C29.4405 49.2634 31.486 51.7244 33.5461 53.8778C28.783 58.3163 24.3122 60.748 21.2731 60.748C20.6157 60.7333 20.0605 60.6015 19.6221 60.3525ZM54.2787 49.1902C54.9654 54.786 54.118 59.1366 52.1455 60.2939C51.7072 60.5576 51.1374 60.6748 50.4653 60.6748C47.4409 60.6748 42.9554 58.2577 38.1923 53.8485C40.2378 51.6951 42.2833 49.2488 44.2265 46.5388C47.5285 46.1872 50.6552 45.6452 53.5189 44.9274C53.855 46.407 54.118 47.8279 54.2787 49.1902ZM59.9038 39.4195C58.6473 39.9615 57.2739 40.445 55.8566 40.8991C55.0238 38.0279 53.928 35.0396 52.5692 31.978C53.9134 28.9311 54.9946 25.9574 55.8128 23.1009C57.2593 23.555 58.6327 24.0531 59.9184 24.5951C65.0906 26.807 68.4364 29.7075 68.4364 32.0073C68.4218 34.3072 65.076 37.2222 59.9038 39.4195Z" fill="#61DAFB"/>
<path d="M35.8255 38.7019C39.5132 38.7019 42.5026 35.7047 42.5026 32.0074C42.5026 28.3102 39.5132 25.313 35.8255 25.313C32.1379 25.313 29.1484 28.3102 29.1484 32.0074C29.1484 35.7047 32.1379 38.7019 35.8255 38.7019Z" fill="#61DAFB"/>
</svg>
